lab05
…
summarise(dat, largest_height = max(height))

##   largest_height
## 1             87

summarise(dat, standard_deviation = sd(points3))

##   standard_deviation
## 1            55.9721

summarise(group_by(dat, team), med = median(points3))

## # A tibble: 30 x 2
##    team    med
##    <chr> <dbl>
##  1 ATL    32.5
##  2 BOS    46.0
##  3 BRK    44.0
##  4 CHI    32.0
##  5 CHO    17.0
##  6 CLE    62.0
##  7 DAL    53.0
##  8 DEN    53.0
##  9 DET    28.0
## 10 GSW    18.0
## # ... with 20 more rows
…
